…
    ## Warning: `as.tibble()` is deprecated, use `as_tibble()` (but mind the new semantics).
    ## This warning is displayed once per session.

``` r
lmi_scores$Cluster <- as.factor(km$cluster)
lmi_scores$States <- capacity_potential_lmi_state_mn$state_name
```

``` r
lmi_scores
```

    ## # A tibble: 51 x 14
    ##    Comp.1  Comp.2  Comp.3  Comp.4  Comp.5  Comp.6  Comp.7   Comp.8   Comp.9
    ##     <dbl>   <dbl>   <dbl>   <dbl>   <dbl>   <dbl>   <dbl>    <dbl>    <dbl>
    ##  1  -1.44 -0.529  -0.0839  0.0445  0.296   0.0938 -0.0533 -0.0824   0.0532 
    ##  2  -2.51  0.362   0.104  -0.189  -0.133  -0.0814 -0.0762  0.00667 -0.00772
    ##  3   5.94 -3.54    0.266   0.372   0.999  -0.337   0.0365 -0.0324  -0.164  
    ##  4  -2.14 -0.188   0.0504 -0.103   0.144  -0.0370 -0.0494 -0.0517  -0.0135 
    ##  5  10.3  -4.82    0.205  -0.899  -0.514   0.502   0.0622 -0.0460   0.0813 
    ##  6  -1.62 -0.0278  0.0902 -0.0512 -0.206  -0.0170  0.0155  0.0171  -0.00700
    ##  7   6.18  1.67   -1.35   -0.0109  0.0167  0.967  -0.0648 -0.0576  -0.104  
    ##  8   5.05  1.43    0.383   1.50   -0.498  -0.447   0.106  -0.116   -0.0229 
    ##  9   2.49  3.60    2.20   -0.862   0.480   0.543   0.121   0.0513   0.00641
    ## 10   4.34 -1.11    0.401   1.22    0.488   0.0145 -0.111   0.199    0.0880 
    ## # ... with 41 more rows, and 5 more variables: Comp.10 <dbl>,
    ## #   Comp.11 <dbl>, Comp.12 <dbl>, Cluster <fct>, States <chr>
…
